Banhu0206
…
10 . Nhân viên bán thấp hơn trung bình

Ý tưởng: Tính số lượng sản phẩm bán được trên tổng số người bán để
lấy 1 mức trung bình, những nhân viên có tổng lượng hàng bán dưới trung
bình cần được thúc đẩy nâng cao năng suất, hiệu quả.

saler_quantity <- df %>%
  group_by(Saler_Name) %>%
  summarise(total_quantity = sum(Quantity, na.rm = TRUE), .groups = "drop")
mean_quantity <- mean(saler_quantity$total_quantity)
below_average_salers <- saler_quantity %>%
  filter(total_quantity < mean_quantity)
below_average_salers

## # A tibble: 21 × 2
##    Saler_Name              total_quantity
##    <chr>                            <dbl>
##  1 Hồ Lê Lệ  Nguyên                   484
##  2 Hồ Thị Khánh  Huyền                440
##  3 Lê Thị Bình                        424
##  4 Lê Thị Phương  Thanh               488
##  5 Lê Thị Thùy  Linh                  462
##  6 Lương Thị  Thanh                   497
##  7 NGUYỄN THỊ THANH  HUYỀN            451
##  8 Nguyễn Gia  Hân                    496
##  9 Nguyễn Nhật  Hạ                    455
## 10 Nguyễn Thị  Hương                  483
## # ℹ 11 more rows
…
